Drop-in replacement for mutate — mutate • tidier
…
  # create date column
  dplyr::mutate(date_col = lubridate::make_date(1973, Month, Day)) %>%
  # create gaps by removing some days
  dplyr::slice_sample(prop = 0.8) %>%
  dplyr::arrange(date_col) %>%
  # compute mean temperature over last seven days in the same month
  tidier::mutate(avg_temp_over_last_week = mean(Temp, na.rm = TRUE),
                 .order_by = Day,
                 .by = Month,
                 .frame = c(lubridate::days(7), # 7 days before current row
                            lubridate::days(-1) # do not include current row
                            ),
                 .index = date_col
                 )
#> # A tibble: 122 × 8
#>    Month Ozone Solar.R  Wind  Temp   Day date_col   avg_temp_over_last_week
#>    <int> <int>   <int> <dbl> <int> <int> <date>                       <dbl>
#>  1     7    64     175   4.6    83     5 1973-07-05                    83.5
#>  2     8    16      77   7.4    82     3 1973-08-03                    81  
#>  3     5    36     118   8      72     2 1973-05-02                   NaN  
#>  4     6    NA     286   8.6    78     1 1973-06-01                   NaN  
#>  5     8    78      NA   6.9    86     4 1973-08-04                    81.3
#>  6     5    12     149  12.6    74     3 1973-05-03                    72  
#>  7     9    78     197   5.1    92     2 1973-09-02                   NaN  
#>  8     6    NA     242  16.1    67     3 1973-06-03                    78  
#>  9     7    77     276   5.1    88     7 1973-07-07                    83.4
#> 10     8    35      NA   7.4    85     5 1973-08-05                    82.5
#> # ℹ 112 more rows
…
